[gd_scene load_steps=4 format=2]

[ext_resource path="res://Scripts/clickable_cell.gd" type="Script" id=1]
[ext_resource path="res://circle_cross.png" type="Texture" id=2]

[sub_resource type="RectangleShape2D" id=1]

[node name="clickable_cell" type="Area2D" groups=[
"cells",
]]
monitorable = false
script = ExtResource( 1 )

[node name="CollisionShape2D" type="CollisionShape2D" parent="."]
shape = SubResource( 1 )

[node name="Sprite" type="Sprite" parent="."]
visible = false
modulate = Color( 0.0196078, 0.0196078, 0.0196078, 1 )
scale = Vector2( 0.25, 0.25 )
texture = ExtResource( 2 )
hframes = 2
region_rect = Rect2( 0, 0, 761, 385 )

[connection signal="input_event" from="." to="." method="_on_clickable_cell_input_event"]
